{
    "productList":[{
       "id":"1",
       "title":"black child",
       "article":"012312",
       "url":"https://atlantablackstar.com/wp-content/uploads/2014/11/cutebaby.jpg",
       "price":"free",
       "color":"black",
       "description":"good black child,selling because of useless",
       "isInCart":false,
       "isInFav":false
    },
    {
      "id":"2",
      "title":"indian child",
      "article":"012314",
      "url":"https://th.bing.com/th/id/R.fe93941061a34caa9d696bff6fe94049?rik=lRqoN8FRgEvf%2fw&pid=ImgRaw&r=0",
      "price":"free",
      "color":"yellow",
      "description":" im selling him because he steals my stuff",
      "isInCart":false,
      "isInFav":false
   },{
      "id":"3",
      "title":"china child",
      "article":"012315",
      "url":"https://th.bing.com/th/id/OIP.FlqlDfBn_vfZGXIZt2DbcAHaE7?pid=ImgDet&rs=1",
      "price":"free",
      "color":"yellow",
      "description":"im selling her because i think she doesnt see me",
      "isInCart":false,
      "isInFav":false
   },{
      "id":"4",
      "title":"UK child",
      "article":"012316",
      "url":"https://th.bing.com/th/id/R.f6579794aeff4a3b4bcfb03a3f58b0aa?rik=aqF747mykmrmig&pid=ImgRaw&r=0",
      "price":"free",
      "color":"white",
      "description":" im selling him because i dont like drip at all ",
      "isInCart":false,
      "isInFav":false
   },{
      "id":"5",
      "title":"russian child",
      "article":"012317",
      "url":"https://th.bing.com/th/id/R.3f87aec212e6543b0b884bf31e0f26bf?rik=iMQDB79FcxCfkQ&pid=ImgRaw&r=0",
      "price":"free and i wll pay u back 123123$",
      "color":"white",
      "description":"im selling this stupid piece of shit because he or she(idk) looks like he ate a snitch and have autism or something like this",
      "isInCart":false,
      "isInFav":false
   },{
      "id":"6",
      "title":"texas child",
      "article":"012318",
      "url":"https://i.pinimg.com/originals/ad/c2/40/adc240d44fb7431a9b568012f59b2d80.jpg",
      "price":"free",
      "color":"white",
      "description":"im selling her because she is trying to still money from my card",
      "isInCart":false,
      "isInFav":false
   },{
      "id":"7",
      "title":"ginger haired child",
      "article":"012319",
      "url":"https://i.pinimg.com/originals/98/d0/fb/98d0fbdc67201addb408ddf75e41f4a7.jpg",
      "price":"free",
      "color":"white",
      "description":"he looks like an orange",
      "isInCart":false,
      "isInFav":false
   },{
      "id":"8",
      "title":"japan child",
      "article":"012320",
      "url":"https://i.pinimg.com/originals/0d/7c/e1/0d7ce13aa98a6bd3546f10766651b1d5.jpg",
      "price":"free",
      "color":"white",
      "description":"she is spelling casts in dota like a god (she is maining invoker)",
      "isInCart":false,
      "isInFav":false
   },{
      "id":"9",
      "title":"romanian child",
      "article":"012321",
      "url":"https://th.bing.com/th/id/R.608779401a0c7f3f0df447a9110c6189?rik=eHhlKn3O6xRiHQ&riu=http%3a%2f%2f2.bp.blogspot.com%2f-_5tVsGjL6W4%2fTbMsPTerk6I%2fAAAAAAAAAIo%2fuH2BoiSE7SE%2fs1600%2fBarlad%2bChildren%252527s%2bHospital%2b-%2bpatient%2b%2525282%252529.JPG&ehk=Q65u5N8hJitOsXsVMtsQiN8LQenWzrSGy%2f8%2fO5MJRJA%3d&risl=&pid=ImgRaw&r=0",
      "price":"free",
      "color":"white",
      "description":"he looks like a criminal",
      "isInCart":false,
      "isInFav":false
   },{
      "id":"10",
      "title":"white child",
      "article":"012313",
      "url":"https://th.bing.com/th/id/OIP.PUuqmQUdxgHptYlDsDvSwAHaE5?pid=ImgDet&rs=1",
      "price":"free",
      "color":"white",
      "description":"im selling him because he bald",
      "isInCart":false,
      "isInFav":false
   }]
   }